<?xml version="1.0" encoding="UTF-8" standalone="no"?>
<svg
   xmlns:dc="http://purl.org/dc/elements/1.1/"
   xmlns:cc="http://creativecommons.org/ns#"
   xmlns:rdf="http://www.w3.org/1999/02/22-rdf-syntax-ns#"
   xmlns:svg="http://www.w3.org/2000/svg"
   xmlns="http://www.w3.org/2000/svg"
   xmlns:sodipodi="http://sodipodi.sourceforge.net/DTD/sodipodi-0.dtd"
   xmlns:inkscape="http://www.inkscape.org/namespaces/inkscape"
   width="16"
   height="16"
   fill="currentColor"
   class="bi bi-people-fill"
   viewBox="0 0 16 16"
   version="1.1"
   id="svg8"
   sodipodi:docname="leave_multiparty.svg"
   inkscape:version="0.92.5 (2060ec1f9f, 2020-04-08)">
  <metadata
     id="metadata14">
    <rdf:RDF>
      <cc:Work
         rdf:about="">
        <dc:format>image/svg+xml</dc:format>
        <dc:type
           rdf:resource="http://purl.org/dc/dcmitype/StillImage" />
        <dc:title></dc:title>
      </cc:Work>
    </rdf:RDF>
  </metadata>
  <defs
     id="defs12" />
  <sodipodi:namedview
     pagecolor="#ffffff"
     bordercolor="#666666"
     borderopacity="1"
     objecttolerance="10"
     gridtolerance="10"
     guidetolerance="10"
     inkscape:pageopacity="0"
     inkscape:pageshadow="2"
     inkscape:window-width="1887"
     inkscape:window-height="1108"
     id="namedview10"
     showgrid="false"
     inkscape:zoom="20.85965"
     inkscape:cx="16.992503"
     inkscape:cy="12.930018"
     inkscape:window-x="33"
     inkscape:window-y="33"
     inkscape:window-maximized="1"
     inkscape:current-layer="svg8"
     inkscape:snap-bbox="true"
     inkscape:bbox-nodes="true"
     inkscape:bbox-paths="true"
     inkscape:snap-bbox-edge-midpoints="true"
     inkscape:snap-bbox-midpoints="true"
     inkscape:snap-intersection-paths="true"
     inkscape:snap-nodes="false" />
  <g
     id="g4756"
     transform="matrix(0.72881356,0,0,0.72881356,2,3.79661)">
    <path
       id="path2"
       d="m 7,14 c 0,0 -1,0 -1,-1 0,-1 1,-4 5,-4 4,0 5,3 5,4 0,1 -1,1 -1,1 z m 4,-6 a 3,3 0 1 0 0,-6 3,3 0 0 0 0,6 z"
       inkscape:connector-curvature="0" />
    <path
       id="path4"
       d="M 5.216,14 A 2.238,2.238 0 0 1 5,13 C 5,11.645 5.68,10.25 6.936,9.28 A 6.325,6.325 0 0 0 5,9 c -4,0 -5,3 -5,4 0,1 1,1 1,1 z"
       inkscape:connector-curvature="0"
       style="fill-rule:evenodd" />
    <path
       id="path6"
       d="m 4.5,8 a 2.5,2.5 0 1 0 0,-5 2.5,2.5 0 0 0 0,5 z"
       inkscape:connector-curvature="0" />
  </g>
  <path
     transform="matrix(0.84419681,0,0,0.84419681,1.3318341,-3.2128319)"
     inkscape:connector-curvature="0"
     style="fill-rule:evenodd"
     d="M 11,7.5 A 0.5,0.5 0 0 1 11.5,7 h 4 a 0.5,0.5 0 0 1 0,1 h -4 A 0.5,0.5 0 0 1 11,7.5 Z"
     id="path2-6" />
</svg>
