<?xml version="1.0" encoding="UTF-8" standalone="no"?>
<!-- Created with Inkscape (http://www.inkscape.org/) -->

<svg
   xmlns:dc="http://purl.org/dc/elements/1.1/"
   xmlns:cc="http://creativecommons.org/ns#"
   xmlns:rdf="http://www.w3.org/1999/02/22-rdf-syntax-ns#"
   xmlns:svg="http://www.w3.org/2000/svg"
   xmlns="http://www.w3.org/2000/svg"
   xmlns:xlink="http://www.w3.org/1999/xlink"
   xmlns:sodipodi="http://sodipodi.sourceforge.net/DTD/sodipodi-0.dtd"
   xmlns:inkscape="http://www.inkscape.org/namespaces/inkscape"
   width="144.83803mm"
   height="144.83803mm"
   viewBox="0 0 144.83803 144.83803"
   version="1.1"
   id="svg5630"
   inkscape:version="0.92.3 (2405546, 2018-03-11)"
   sodipodi:docname="echo.svg"
   inkscape:export-filename="/home/jlb/Desktop/echo/echo-256.png"
   inkscape:export-xdpi="44.889999"
   inkscape:export-ydpi="44.889999">
  <defs
     id="defs5624">
    <linearGradient
       inkscape:collect="always"
       id="linearGradient10290">
      <stop
         style="stop-color:#f9c600;stop-opacity:1"
         offset="0"
         id="stop10286" />
      <stop
         style="stop-color:#f79621;stop-opacity:1"
         offset="1"
         id="stop10288" />
    </linearGradient>
    <linearGradient
       inkscape:collect="always"
       xlink:href="#linearGradient10290"
       id="linearGradient10292"
       x1="206.07112"
       y1="0"
       x2="206.07112"
       y2="394.28571"
       gradientUnits="userSpaceOnUse" />
    <linearGradient
       inkscape:collect="always"
       xlink:href="#linearGradient10290"
       id="linearGradient10304"
       x1="-95.999992"
       y1="-300"
       x2="330.28571"
       y2="-300"
       gradientUnits="userSpaceOnUse" />
  </defs>
  <sodipodi:namedview
     id="base"
     pagecolor="#ffffff"
     bordercolor="#666666"
     borderopacity="1.0"
     inkscape:pageopacity="0.0"
     inkscape:pageshadow="2"
     inkscape:zoom="0.24748737"
     inkscape:cx="-130.33141"
     inkscape:cy="-169.01032"
     inkscape:document-units="mm"
     inkscape:current-layer="layer1"
     showgrid="false"
     fit-margin-top="0"
     fit-margin-left="0"
     fit-margin-right="0"
     fit-margin-bottom="0"
     inkscape:window-width="1888"
     inkscape:window-height="1109"
     inkscape:window-x="32"
     inkscape:window-y="32"
     inkscape:window-maximized="1"
     inkscape:snap-bbox="true"
     inkscape:bbox-nodes="true"
     inkscape:snap-page="true" />
  <metadata
     id="metadata5627">
    <rdf:RDF>
      <cc:Work
         rdf:about="">
        <dc:format>image/svg+xml</dc:format>
        <dc:type
           rdf:resource="http://purl.org/dc/dcmitype/StillImage" />
        <dc:title></dc:title>
      </cc:Work>
    </rdf:RDF>
  </metadata>
  <g
     inkscape:label="Calque 1"
     inkscape:groupmode="layer"
     id="layer1"
     transform="translate(60.326131,43.883327)">
    <rect
       style="opacity:1;fill:url(#linearGradient10292);fill-opacity:1;stroke:none;stroke-width:32;stroke-linecap:round;stroke-linejoin:miter;stroke-miterlimit:4;stroke-dasharray:none;stroke-opacity:0.87135925"
       id="rect10284"
       width="394.28571"
       height="394.28571"
       x="0"
       y="-4.8059189e-07"
       transform="matrix(0.26458333,0,0,0.26458333,-41.671445,131.92584)" />
    <path
       class="dcg-svg-curve"
       d="m -3,209.79792 v 0 l 2.31854004,-0.0858 5.77689186,-1.0284 5.7768921,-1.36731 2.888446,-0.47163 2.888446,-0.1939 2.888445,0.1243 2.888446,0.42589 11.553784,2.91894 2.888446,0.45851 2.888446,0.17067 2.888446,-0.14582 2.888446,-0.44921 5.776891,-1.57749 5.776892,-1.87671 5.776892,-1.39569 2.888446,-0.3277 2.888446,-0.0257 2.888446,0.28477 2.888446,0.5788 5.776892,1.87145 11.553783,4.79457 5.776892,1.85113 5.776889,0.95313 2.88845,0.0738 2.88844,-0.20909 2.88845,-0.49199 2.88845,-0.76821 5.77689,-2.31624 5.77689,-3.25553 5.77689,-4.08359 5.77689,-4.84793 5.7769,-5.62298 5.77689,-6.48973 5.77689,-7.4987 5.77689,-8.59215 11.55378,-18.81016 2.88845,-4.04192 2.88845,-3.19108 2.88844,-2.02531 1.44423,-0.49942 1.44422,-0.13394 1.44422,0.23565 1.44422,0.59804 2.88845,2.20232 2.88845,3.32826 2.88844,4.13288 11.55379,18.83059 5.77689,8.51846 5.77689,7.42476 5.77689,6.42562 5.77689,5.56745 5.77689,4.79581 5.7769,4.02927 5.77689,3.19465 5.77689,2.24692 2.88845,0.73071 2.88844,0.45323 2.88845,0.16989 2.88844,-0.1124 5.7769,-1.02314 5.77689,-1.90159 11.55378,-4.79469 5.77689,-1.81495 2.88845,-0.54005 2.88844,-0.24239 2.88845,0.0685 2.88845,0.3672 5.77689,1.45073 5.77689,1.882 5.77689,1.52838 2.88845,0.4096 2.88844,0.10203 2.88845,-0.21303 2.88845,-0.49364 11.55378,-2.91117 2.88845,-0.38728 2.88844,-0.0801 2.88845,0.23589 2.88844,0.50369 5.77689,1.37939 5.7769,0.96783 2.88844,0.0625 2.88845,-0.25253 8.34941,-1.688"
       stroke-miterlimit="10"
       id="path5576"
       inkscape:connector-curvature="0"
       style="fill:none;stroke:#b3b3b3;stroke-width:26.87916565;stroke-linecap:round;stroke-linejoin:round;stroke-miterlimit:10;stroke-dasharray:none;stroke-opacity:0.7;paint-order:fill stroke markers"
       transform="matrix(0.2933423,0,0,0.52916667,-302.95787,-119.74215)" />
    <path
       class="dcg-svg-curve"
       d="m -3,217.79452 v 0 l 2.51774321,0.0453 5.77689179,-0.78062 5.776892,-1.37208 5.776892,-0.93212 2.888446,-0.0556 2.888446,0.25537 5.776891,1.24464 5.776892,1.54897 5.776892,0.95785 2.888446,0.0642 2.888446,-0.24316 5.776892,-1.27434 5.776891,-1.82851 5.776892,-1.63459 5.776892,-0.80484 2.888446,0.0219 2.888446,0.31714 5.776892,1.42419 11.553783,4.54676 5.776892,2.11957 5.776896,1.45035 5.77689,0.53509 5.77689,-0.47245 5.77689,-1.45029 5.77689,-2.32202 5.7769,-3.05565 5.77689,-3.65286 11.55378,-8.64414 17.33068,-14.32518 5.77689,-3.98784 2.88844,-1.54913 2.88845,-1.15014 2.88845,-0.68834 2.88844,-0.18623 2.88845,0.32718 2.88844,0.82088 2.88845,1.26721 2.88845,1.64615 5.77689,4.11651 17.33067,14.34999 11.55379,8.53786 5.77689,3.57797 5.77689,2.96287 5.77689,2.20969 5.77689,1.3205 5.7769,0.33295 5.77689,-0.67006 5.77689,-1.56093 5.77689,-2.18366 5.77689,-2.38872 5.77689,-2.08411 5.7769,-1.29022 2.88844,-0.23672 2.88845,0.06 5.77689,0.94647 11.55378,3.50004 5.7769,1.14669 2.88844,0.15933 2.88845,-0.14835 5.77689,-1.08374 5.77689,-1.56278 5.77689,-1.13413 2.88845,-0.17131 2.88844,0.14115 5.7769,1.04869 5.77689,1.35041 2.88844,0.4573 2.88845,0.17641 2.88845,-0.13825 2.88844,-0.41755 8.14632,-1.668"
       stroke-miterlimit="10"
       id="path5578"
       inkscape:connector-curvature="0"
       style="fill:none;stroke:#999999;stroke-width:26.87916565;stroke-linecap:round;stroke-linejoin:round;stroke-miterlimit:10;stroke-dasharray:none;stroke-opacity:0.7;paint-order:fill stroke markers"
       transform="matrix(0.2933423,0,0,0.52916667,-302.95787,-105.98382)" />
    <path
       class="dcg-svg-curve"
       d="m -3,225.45183 v 0 l 2.71694638,0.39389 2.88844592,0.0146 2.8884459,-0.28585 11.5537838,-2.44694 2.888446,-0.34052 2.888446,-0.0542 5.776891,0.7538 11.553784,2.82719 2.888446,0.38846 2.888446,0.11379 2.888446,-0.1787 2.888446,-0.45362 11.553783,-3.30608 5.776892,-1.38964 5.776892,-0.4952 2.888446,0.15681 2.888446,0.42158 5.776892,1.51823 11.553783,4.3536 5.776893,1.97414 5.77689,1.38383 5.77689,0.61074 5.77689,-0.21722 5.7769,-0.99927 5.77689,-1.66936 5.77689,-2.19293 5.77689,-2.5575 17.33068,-8.23383 5.77689,-2.35534 5.77689,-1.84607 5.77689,-1.15727 5.77689,-0.34063 5.7769,0.51618 5.77689,1.31259 5.77689,1.96712 11.55378,5.14922 11.55379,5.53918 5.77689,2.49528 5.77689,2.09747 5.77689,1.54201 5.77689,0.84498 5.7769,0.0469 5.77689,-0.77911 5.77689,-1.52547 5.77689,-2.06094 11.55379,-4.27437 5.77689,-1.34735 2.88844,-0.31428 2.88845,-0.0436 5.77689,0.7061 5.77689,1.522 5.77689,1.79132 5.7769,1.37477 2.88844,0.34411 2.88845,0.0579 5.77689,-0.7201 11.55378,-2.83569 2.88845,-0.40688 2.88845,-0.1231 2.88844,0.17719 2.88845,0.44318 11.55378,2.38803 2.88845,0.16491 2.88844,-0.14061 5.77689,-0.99926 7.22112,-1.31809 0.74468,-0.0637"
       stroke-miterlimit="10"
       id="path5580"
       inkscape:connector-curvature="0"
       style="fill:none;stroke:#808080;stroke-width:26.87916565;stroke-linecap:round;stroke-linejoin:round;stroke-miterlimit:10;stroke-dasharray:none;stroke-opacity:0.7;paint-order:fill stroke markers"
       transform="matrix(0.2933423,0,0,0.52916667,-302.95787,-93.283822)" />
    <path
       class="dcg-svg-curve"
       d="m -3,232.86391 v 0 l 2.91614954,0.5923 2.88844596,0.3674 2.8884459,0.0986 5.7768916,-0.64391 11.553784,-2.34163 2.888446,-0.1823 2.888446,0.10167 5.776891,0.96153 11.553784,2.68259 2.888446,0.2982 2.888446,0.0347 5.776892,-0.71523 11.553783,-3.19378 5.776892,-1.34075 5.776892,-0.55347 5.776892,0.39369 5.776892,1.24574 17.330671,5.80783 5.7769,1.55634 5.77689,1.01422 5.77689,0.41072 5.77689,-0.16947 5.77689,-0.66605 11.55379,-2.32419 11.55378,-2.72167 5.77689,-1.17933 5.77689,-0.90941 5.7769,-0.55642 5.77689,-0.15198 5.77689,0.26662 5.77689,0.6604 11.55379,2.22909 17.33067,3.96184 5.77689,0.95195 5.77689,0.5399 5.7769,0.0157 5.77689,-0.57806 5.77689,-1.17401 5.77689,-1.68169 11.55379,-4.01974 5.77689,-1.69787 5.77689,-1.03227 5.77689,-0.13205 5.77689,0.79837 5.77689,1.49351 5.7769,1.70755 5.77689,1.32188 2.88844,0.34945 2.88845,0.0872 5.77689,-0.61235 11.55379,-2.76501 5.77689,-0.70566 2.88844,0.0563 2.88845,0.32797 11.55378,2.40544 2.88845,0.31643 2.88844,0.0332 5.7769,-0.73786 5.77689,-1.19998 5.77689,-0.63044 1.98581,0.0434"
       stroke-miterlimit="10"
       id="path5582"
       inkscape:connector-curvature="0"
       style="fill:none;stroke:#4d4d4d;stroke-width:26.87916565;stroke-linecap:round;stroke-linejoin:round;stroke-miterlimit:10;stroke-dasharray:none;stroke-opacity:0.7;paint-order:fill stroke markers"
       transform="matrix(0.2933423,0,0,0.52916667,-302.95787,-80.583822)" />
    <path
       transform="matrix(4.3822117,0,0,4.3822117,-301.48483,-97.543759)"
       d="M 4.93,3.93 C 3.12,5.74 2,8.24 2,11 c 0,2.76 1.12,5.26 2.93,7.07 L 6.34,16.66 C 4.89,15.22 4,13.22 4,11 4,8.79 4.89,6.78 6.34,5.34 L 4.93,3.93 m 14.14,0 -1.41,1.41 C 19.11,6.78 20,8.79 20,11 c 0,2.22 -0.89,4.22 -2.34,5.66 l 1.41,1.41 C 20.88,16.26 22,13.76 22,11 22,8.24 20.88,5.74 19.07,3.93 M 7.76,6.76 C 6.67,7.85 6,9.35 6,11 c 0,1.65 0.67,3.15 1.76,4.24 L 9.17,13.83 C 8.45,13.11 8,12.11 8,11 8,9.89 8.45,8.89 9.17,8.17 L 7.76,6.76 m 8.48,0 -1.41,1.41 C 15.55,8.89 16,9.89 16,11 c 0,1.11 -0.45,2.11 -1.17,2.83 l 1.41,1.41 C 17.33,14.15 18,12.65 18,11 18,9.35 17.33,7.85 16.24,6.76"
       id="path2"
       inkscape:connector-curvature="0"
       sodipodi:nodetypes="csccsccccsccsccsccsccccsccsc" />
    <path
       transform="matrix(0.2933423,0,0,0.52916667,-43.538193,106.48425)"
       style="fill:none;stroke:#000000;stroke-width:26.87916565;stroke-linecap:round;stroke-linejoin:round;stroke-miterlimit:10;stroke-dasharray:none;stroke-opacity:1;paint-order:fill stroke markers"
       inkscape:connector-curvature="0"
       id="path5609"
       stroke-miterlimit="10"
       d="m 33.979891,210.12001 2.888446,0.45851 2.888446,0.17067 2.888446,-0.14582 2.888446,-0.44921 5.776891,-1.57749 5.776892,-1.87671 5.776892,-1.39569 2.888446,-0.3277 2.888446,-0.0257 2.888446,0.28477 2.888446,0.5788 5.776892,1.87145 11.553783,4.79457 5.776892,1.85113 5.776889,0.95313 2.88845,0.0738 2.88844,-0.20909 2.88845,-0.49199 2.88845,-0.76821 5.77689,-2.31624 5.77689,-3.25553 5.77689,-4.08359 5.77689,-4.84793 5.7769,-5.62298 5.77689,-6.48973 5.77689,-7.4987 5.77689,-8.59215 11.55378,-18.81016 2.88845,-4.04192 2.88845,-3.19108 2.88844,-2.02531 1.44423,-0.49942 1.44422,-0.13394 1.44422,0.23565 1.44422,0.59804 2.88845,2.20232 2.88845,3.32826 2.88844,4.13288 11.55379,18.83059 5.77689,8.51846 5.77689,7.42476 5.77689,6.42562 5.77689,5.56745 5.77689,4.79581 5.7769,4.02927 5.77689,3.19465 5.77689,2.24692 2.88845,0.73071 2.88844,0.45323 2.88845,0.16989 2.88844,-0.1124 5.7769,-1.02314 5.77689,-1.90159 11.55378,-4.79469 5.77689,-1.81495 2.88845,-0.54005 2.88844,-0.24239 2.88845,0.0685 2.88845,0.3672 5.77689,1.45073 5.77689,1.882 5.77689,1.52838 2.88845,0.4096 2.88844,0.10203 2.88845,-0.21303 2.88845,-0.49364"
       class="dcg-svg-curve"
       sodipodi:nodetypes="ccccccccccccccccccccccccccccccccccccccccccccccccccccccccccccccccccc" />
    <path
       sodipodi:nodetypes="csccsccccsccsccsccsccccsccsc"
       inkscape:connector-curvature="0"
       id="path5611"
       d="M 4.93,3.93 C 3.12,5.74 2,8.24 2,11 c 0,2.76 1.12,5.26 2.93,7.07 L 6.34,16.66 C 4.89,15.22 4,13.22 4,11 4,8.79 4.89,6.78 6.34,5.34 L 4.93,3.93 m 14.14,0 -1.41,1.41 C 19.11,6.78 20,8.79 20,11 c 0,2.22 -0.89,4.22 -2.34,5.66 l 1.41,1.41 C 20.88,16.26 22,13.76 22,11 22,8.24 20.88,5.74 19.07,3.93 M 7.76,6.76 C 6.67,7.85 6,9.35 6,11 c 0,1.65 0.67,3.15 1.76,4.24 L 9.17,13.83 C 8.45,13.11 8,12.11 8,11 8,9.89 8.45,8.89 9.17,8.17 L 7.76,6.76 m 8.48,0 -1.41,1.41 C 15.55,8.89 16,9.89 16,11 c 0,1.11 -0.45,2.11 -1.17,2.83 l 1.41,1.41 C 17.33,14.15 18,12.65 18,11 18,9.35 17.33,7.85 16.24,6.76"
       transform="matrix(4.3822117,0,0,4.3822117,-42.065152,123.39097)"
       style="fill:#3f3f3f;fill-opacity:1" />
    <path
       transform="matrix(0.18749983,0,0,0.52916667,-218.19695,21.949144)"
       style="fill:none;stroke:#e6e6e6;stroke-width:26.87916565;stroke-linecap:round;stroke-linejoin:round;stroke-miterlimit:10;stroke-dasharray:none;stroke-opacity:0.7;paint-order:fill stroke markers"
       inkscape:connector-curvature="0"
       id="path5499"
       stroke-miterlimit="10"
       d="m -3,201.75033 v 0 l 2.11933688,-0.10671 5.77689182,-1.08243 5.7768923,-1.35517 2.888445,-0.43992 2.888446,-0.15137 2.888446,0.17019 2.888446,0.46713 11.553784,2.92675 2.888446,0.41604 2.888446,0.11768 2.888446,-0.20256 2.888445,-0.50251 11.553784,-3.52121 5.776892,-1.31316 2.888446,-0.26386 2.888446,0.0468 2.888446,0.36035 2.888446,0.65179 5.776891,1.98924 11.553784,4.8245 5.776892,1.74717 2.888442,0.52629 2.88845,0.25488 2.88845,-0.0326 2.88844,-0.32639 2.88845,-0.61843 2.88844,-0.90251 5.7769,-2.6064 5.77689,-3.57943 5.77689,-4.46285 5.77689,-5.32934 5.77689,-6.29207 5.77689,-7.49356 2.88845,-4.31265 2.88845,-4.76536 2.88844,-5.27467 2.88845,-5.82688 5.77689,-13.27807 5.77689,-14.4673 2.88845,-6.74994 2.88844,-5.59658 1.44423,-2.14153 1.44422,-1.59447 1.44422,-0.98404 1.44423,-0.33272 1.44422,0.33272 1.44422,0.98404 1.44422,1.59447 1.44423,2.14153 2.88844,5.59658 2.88845,6.74994 5.77689,14.4673 5.77689,13.27807 2.88845,5.82688 2.88844,5.27467 2.88845,4.76536 2.88845,4.31265 5.77689,7.49356 5.77689,6.29207 5.77689,5.32934 5.77689,4.46285 5.7769,3.57943 5.77689,2.6064 2.88844,0.90251 2.88845,0.61843 2.88844,0.32639 2.88845,0.0326 2.88845,-0.25488 2.88844,-0.52629 5.77689,-1.74717 11.55379,-4.8245 5.77689,-1.98924 2.88845,-0.65179 2.88844,-0.36035 2.88845,-0.0468 2.88844,0.26386 5.7769,1.31316 11.55378,3.52121 2.88844,0.50251 2.88845,0.20256 2.88845,-0.11768 2.88844,-0.41604 11.55379,-2.92675 2.88844,-0.46713 2.88845,-0.17019 2.88844,0.15137 2.88845,0.43992 5.77689,1.35517 5.77689,1.08243 2.88845,0.14544 2.88845,-0.17601 8.5525,-1.67881"
       class="dcg-svg-curve" />
    <path
       transform="matrix(0.18749983,0,0,0.52916667,-218.19695,21.949144)"
       style="fill:none;stroke:#b3b3b3;stroke-width:26.87916565;stroke-linecap:round;stroke-linejoin:round;stroke-miterlimit:10;stroke-dasharray:none;stroke-opacity:0.7;paint-order:fill stroke markers"
       inkscape:connector-curvature="0"
       id="path5501"
       stroke-miterlimit="10"
       d="m -3,209.79792 v 0 l 2.31854004,-0.0858 5.77689186,-1.0284 5.7768921,-1.36731 2.888446,-0.47163 2.888446,-0.1939 2.888445,0.1243 2.888446,0.42589 11.553784,2.91894 2.888446,0.45851 2.888446,0.17067 2.888446,-0.14582 2.888446,-0.44921 5.776891,-1.57749 5.776892,-1.87671 5.776892,-1.39569 2.888446,-0.3277 2.888446,-0.0257 2.888446,0.28477 2.888446,0.5788 5.776892,1.87145 11.553783,4.79457 5.776892,1.85113 5.776889,0.95313 2.88845,0.0738 2.88844,-0.20909 2.88845,-0.49199 2.88845,-0.76821 5.77689,-2.31624 5.77689,-3.25553 5.77689,-4.08359 5.77689,-4.84793 5.7769,-5.62298 5.77689,-6.48973 5.77689,-7.4987 5.77689,-8.59215 11.55378,-18.81016 2.88845,-4.04192 2.88845,-3.19108 2.88844,-2.02531 1.44423,-0.49942 1.44422,-0.13394 1.44422,0.23565 1.44422,0.59804 2.88845,2.20232 2.88845,3.32826 2.88844,4.13288 11.55379,18.83059 5.77689,8.51846 5.77689,7.42476 5.77689,6.42562 5.77689,5.56745 5.77689,4.79581 5.7769,4.02927 5.77689,3.19465 5.77689,2.24692 2.88845,0.73071 2.88844,0.45323 2.88845,0.16989 2.88844,-0.1124 5.7769,-1.02314 5.77689,-1.90159 11.55378,-4.79469 5.77689,-1.81495 2.88845,-0.54005 2.88844,-0.24239 2.88845,0.0685 2.88845,0.3672 5.77689,1.45073 5.77689,1.882 5.77689,1.52838 2.88845,0.4096 2.88844,0.10203 2.88845,-0.21303 2.88845,-0.49364 11.55378,-2.91117 2.88845,-0.38728 2.88844,-0.0801 2.88845,0.23589 2.88844,0.50369 5.77689,1.37939 5.7769,0.96783 2.88844,0.0625 2.88845,-0.25253 8.34941,-1.688"
       class="dcg-svg-curve" />
    <path
       transform="matrix(0.18749983,0,0,0.52916667,-218.19695,21.949144)"
       style="fill:none;stroke:#999999;stroke-width:26.87916565;stroke-linecap:round;stroke-linejoin:round;stroke-miterlimit:10;stroke-dasharray:none;stroke-opacity:0.7;paint-order:fill stroke markers"
       inkscape:connector-curvature="0"
       id="path5503"
       stroke-miterlimit="10"
       d="m -3,217.79452 v 0 l 2.51774321,0.0453 5.77689179,-0.78062 5.776892,-1.37208 5.776892,-0.93212 2.888446,-0.0556 2.888446,0.25537 5.776891,1.24464 5.776892,1.54897 5.776892,0.95785 2.888446,0.0642 2.888446,-0.24316 5.776892,-1.27434 5.776891,-1.82851 5.776892,-1.63459 5.776892,-0.80484 2.888446,0.0219 2.888446,0.31714 5.776892,1.42419 11.553783,4.54676 5.776892,2.11957 5.776896,1.45035 5.77689,0.53509 5.77689,-0.47245 5.77689,-1.45029 5.77689,-2.32202 5.7769,-3.05565 5.77689,-3.65286 11.55378,-8.64414 17.33068,-14.32518 5.77689,-3.98784 2.88844,-1.54913 2.88845,-1.15014 2.88845,-0.68834 2.88844,-0.18623 2.88845,0.32718 2.88844,0.82088 2.88845,1.26721 2.88845,1.64615 5.77689,4.11651 17.33067,14.34999 11.55379,8.53786 5.77689,3.57797 5.77689,2.96287 5.77689,2.20969 5.77689,1.3205 5.7769,0.33295 5.77689,-0.67006 5.77689,-1.56093 5.77689,-2.18366 5.77689,-2.38872 5.77689,-2.08411 5.7769,-1.29022 2.88844,-0.23672 2.88845,0.06 5.77689,0.94647 11.55378,3.50004 5.7769,1.14669 2.88844,0.15933 2.88845,-0.14835 5.77689,-1.08374 5.77689,-1.56278 5.77689,-1.13413 2.88845,-0.17131 2.88844,0.14115 5.7769,1.04869 5.77689,1.35041 2.88844,0.4573 2.88845,0.17641 2.88845,-0.13825 2.88844,-0.41755 8.14632,-1.668"
       class="dcg-svg-curve" />
    <path
       transform="matrix(0.18749983,0,0,0.52916667,-218.19695,21.949144)"
       style="fill:none;stroke:#808080;stroke-width:26.87916565;stroke-linecap:round;stroke-linejoin:round;stroke-miterlimit:10;stroke-dasharray:none;stroke-opacity:0.7;paint-order:fill stroke markers"
       inkscape:connector-curvature="0"
       id="path5518"
       stroke-miterlimit="10"
       d="m -3,225.45183 v 0 l 2.71694638,0.39389 2.88844592,0.0146 2.8884459,-0.28585 11.5537838,-2.44694 2.888446,-0.34052 2.888446,-0.0542 5.776891,0.7538 11.553784,2.82719 2.888446,0.38846 2.888446,0.11379 2.888446,-0.1787 2.888446,-0.45362 11.553783,-3.30608 5.776892,-1.38964 5.776892,-0.4952 2.888446,0.15681 2.888446,0.42158 5.776892,1.51823 11.553783,4.3536 5.776893,1.97414 5.77689,1.38383 5.77689,0.61074 5.77689,-0.21722 5.7769,-0.99927 5.77689,-1.66936 5.77689,-2.19293 5.77689,-2.5575 17.33068,-8.23383 5.77689,-2.35534 5.77689,-1.84607 5.77689,-1.15727 5.77689,-0.34063 5.7769,0.51618 5.77689,1.31259 5.77689,1.96712 11.55378,5.14922 11.55379,5.53918 5.77689,2.49528 5.77689,2.09747 5.77689,1.54201 5.77689,0.84498 5.7769,0.0469 5.77689,-0.77911 5.77689,-1.52547 5.77689,-2.06094 11.55379,-4.27437 5.77689,-1.34735 2.88844,-0.31428 2.88845,-0.0436 5.77689,0.7061 5.77689,1.522 5.77689,1.79132 5.7769,1.37477 2.88844,0.34411 2.88845,0.0579 5.77689,-0.7201 11.55378,-2.83569 2.88845,-0.40688 2.88845,-0.1231 2.88844,0.17719 2.88845,0.44318 11.55378,2.38803 2.88845,0.16491 2.88844,-0.14061 5.77689,-0.99926 7.22112,-1.31809 0.74468,-0.0637"
       class="dcg-svg-curve" />
    <path
       transform="matrix(0.18749983,0,0,0.52916667,-218.19695,24.065811)"
       style="fill:none;stroke:#4d4d4d;stroke-width:26.87916565;stroke-linecap:round;stroke-linejoin:round;stroke-miterlimit:10;stroke-dasharray:none;stroke-opacity:0.7;paint-order:fill stroke markers"
       inkscape:connector-curvature="0"
       id="path5516"
       stroke-miterlimit="10"
       d="m -3,232.86391 v 0 l 2.91614954,0.5923 2.88844596,0.3674 2.8884459,0.0986 5.7768916,-0.64391 11.553784,-2.34163 2.888446,-0.1823 2.888446,0.10167 5.776891,0.96153 11.553784,2.68259 2.888446,0.2982 2.888446,0.0347 5.776892,-0.71523 11.553783,-3.19378 5.776892,-1.34075 5.776892,-0.55347 5.776892,0.39369 5.776892,1.24574 17.330671,5.80783 5.7769,1.55634 5.77689,1.01422 5.77689,0.41072 5.77689,-0.16947 5.77689,-0.66605 11.55379,-2.32419 11.55378,-2.72167 5.77689,-1.17933 5.77689,-0.90941 5.7769,-0.55642 5.77689,-0.15198 5.77689,0.26662 5.77689,0.6604 11.55379,2.22909 17.33067,3.96184 5.77689,0.95195 5.77689,0.5399 5.7769,0.0157 5.77689,-0.57806 5.77689,-1.17401 5.77689,-1.68169 11.55379,-4.01974 5.77689,-1.69787 5.77689,-1.03227 5.77689,-0.13205 5.77689,0.79837 5.77689,1.49351 5.7769,1.70755 5.77689,1.32188 2.88844,0.34945 2.88845,0.0872 5.77689,-0.61235 11.55379,-2.76501 5.77689,-0.70566 2.88844,0.0563 2.88845,0.32797 11.55378,2.40544 2.88845,0.31643 2.88844,0.0332 5.7769,-0.73786 5.77689,-1.19998 5.77689,-0.63044 1.98581,0.0434"
       class="dcg-svg-curve" />
    <path
       style="color:#000000;font-style:normal;font-variant:normal;font-weight:normal;font-stretch:normal;font-size:medium;line-height:normal;font-family:sans-serif;font-variant-ligatures:normal;font-variant-position:normal;font-variant-caps:normal;font-variant-numeric:normal;font-variant-alternates:normal;font-feature-settings:normal;text-indent:0;text-align:start;text-decoration:none;text-decoration-line:none;text-decoration-style:solid;text-decoration-color:#000000;letter-spacing:normal;word-spacing:normal;text-transform:none;writing-mode:lr-tb;direction:ltr;text-orientation:mixed;dominant-baseline:auto;baseline-shift:baseline;text-anchor:start;white-space:normal;shape-padding:0;clip-rule:nonzero;display:inline;overflow:visible;visibility:visible;opacity:1;isolation:auto;mix-blend-mode:normal;color-interpolation:sRGB;color-interpolation-filters:linearRGB;solid-color:#000000;solid-opacity:1;vector-effect:none;fill:#666666;fill-opacity:0.7;fill-rule:nonzero;stroke:none;stroke-width:26.87916565;stroke-linecap:round;stroke-linejoin:round;stroke-miterlimit:10;stroke-dasharray:none;stroke-dashoffset:0;stroke-opacity:1;paint-order:fill stroke markers;color-rendering:auto;image-rendering:auto;shape-rendering:auto;text-rendering:auto;enable-background:accumulate"
       d="m 184.33398,96.908203 c -12.69117,-0.09296 -19.00574,12.683377 -23.09557,22.817367 -9.25485,22.67449 -17.56912,47.22189 -36.74641,63.68687 -7.29056,6.45104 -17.42123,13.5344 -27.493888,8.97578 -12.802257,-5.34201 -26.732365,-11.9613 -40.866267,-7.51227 -7.918099,1.51397 -15.851222,6.65641 -23.974765,3.02723 -10.201285,-3.5345 -21.193009,-3.30919 -31.4668183,-0.22663 -7.0829205,0.45946 -15.4205117,2.87527 -16.9371137,10.97772 -2.833251,10.28427 8.1790601,19.05764 17.840602,16.19925 7.5786499,-1.18554 15.306459,-4.57295 22.850202,-1.17523 10.831053,3.79916 22.615445,2.80934 33.174624,-1.36419 6.408764,-2.81439 13.500301,-2.2108 19.612129,1.05363 12.733888,6.152 27.665115,10.23371 41.435315,4.89011 24.06068,-9.52842 41.34836,-30.97409 52.65444,-53.58663 4.69342,-9.66134 8.70891,-19.638 12.66001,-29.62235 9.37475,24.4712 20.27586,49.51283 40.31578,67.24663 13.27523,12.65209 32.27329,22.49859 50.92488,16.88619 9.60188,-1.93358 17.95104,-9.06384 27.96246,-8.70512 11.23334,2.63992 22.53347,7.95702 34.29493,4.73049 7.2607,-1.87904 14.83241,-4.73774 22.2248,-1.6288 10.22059,2.76753 21.39985,1.77669 31.01031,-2.44579 10.20228,-5.93705 6.48884,-23.264 -5.25044,-24.49863 -6.83238,-0.60948 -13.56248,3.37974 -20.33487,0.60771 -11.06511,-3.73203 -22.71857,-1.59206 -33.56387,1.73509 -8.06588,1.07562 -15.3708,-4.0616 -23.29101,-4.9082 -14.42642,-3.15744 -27.42505,5.08696 -40.59602,9.31307 -11.10881,2.37932 -20.40557,-6.57813 -27.96062,-13.42832 -18.2891,-17.88827 -25.32764,-43.06996 -35.46316,-65.7727 -3.72429,-8.26833 -9.88447,-17.052022 -19.91966,-17.272277 z"
       id="path5545"
       inkscape:connector-curvature="0"
       transform="matrix(0.18749983,0,0,0.52916667,-339.90528,21.949144)" />
    <path
       style="color:#000000;font-style:normal;font-variant:normal;font-weight:normal;font-stretch:normal;font-size:medium;line-height:normal;font-family:sans-serif;font-variant-ligatures:normal;font-variant-position:normal;font-variant-caps:normal;font-variant-numeric:normal;font-variant-alternates:normal;font-feature-settings:normal;text-indent:0;text-align:start;text-decoration:none;text-decoration-line:none;text-decoration-style:solid;text-decoration-color:#000000;letter-spacing:normal;word-spacing:normal;text-transform:none;writing-mode:lr-tb;direction:ltr;text-orientation:mixed;dominant-baseline:auto;baseline-shift:baseline;text-anchor:start;white-space:normal;shape-padding:0;clip-rule:nonzero;display:inline;overflow:visible;visibility:visible;opacity:1;isolation:auto;mix-blend-mode:normal;color-interpolation:sRGB;color-interpolation-filters:linearRGB;solid-color:#000000;solid-opacity:1;vector-effect:none;fill:#4d4d4d;fill-opacity:0.7;fill-rule:nonzero;stroke:none;stroke-width:26.87916565;stroke-linecap:round;stroke-linejoin:round;stroke-miterlimit:10;stroke-dasharray:none;stroke-dashoffset:0;stroke-opacity:1;paint-order:fill stroke markers;color-rendering:auto;image-rendering:auto;shape-rendering:auto;text-rendering:auto;enable-background:accumulate"
       d="m 183.66406,129.05078 c -14.34368,0.61787 -21.60402,14.84994 -28.21283,25.60276 -10.71261,17.84026 -23.22156,36.52834 -42.67225,45.58971 -11.25409,5.2073 -21.961549,-4.11441 -32.601513,-6.69026 -12.441114,-4.69787 -25.444361,-0.31436 -37.454811,3.43728 -9.632592,1.0456 -18.643192,-5.17382 -28.427127,-3.65072 -7.3435926,0.64562 -14.42855502,3.0403 -21.7480617,3.72356 -11.3788313,3.13964 -12.2058343,20.84074 -1.1693017,25.02764 11.0635449,4.36008 22.3409004,-5.31205 33.3614684,-0.44273 11.167209,3.9053 23.300329,2.85033 34.189292,-1.41433 6.803459,-3.19832 14.248554,-1.52606 20.651082,1.74785 13.639647,6.6727 30.174922,9.73086 44.336482,2.75449 25.0596,-11.36561 41.91661,-34.61721 55.4732,-57.69832 2.16126,-2.45644 4.40186,-11.02319 6.62329,-4.20486 13.59368,23.26825 29.48302,46.97046 53.89506,59.96675 13.36584,7.72762 30.04392,7.54002 43.8714,1.10296 7.66786,-3.21317 16.11237,-7.86174 24.46241,-3.93238 10.92182,4.27141 23.09646,5.75967 34.36764,1.85377 6.2663,-2.645 12.86131,-1.44872 19.15235,0.32989 9.6488,2.20014 20.05528,0.76014 29.01749,-3.11957 10.18273,-5.97053 6.41238,-23.28519 -5.3309,-24.48125 -7.02422,-0.53693 -13.95463,3.53044 -20.92875,0.70781 -10.84755,-3.6252 -22.28176,-1.68033 -32.92007,1.61806 -9.88952,1.54301 -18.78137,-5.37989 -28.67578,-5.31057 -14.13618,-1.47774 -25.93847,7.9514 -39.3086,10.29109 -12.16586,-0.11077 -21.58851,-9.66674 -29.81339,-17.56741 -13.33781,-13.39918 -20.69506,-31.19507 -32.24098,-45.90807 -4.40165,-5.30194 -10.77362,-9.52071 -17.8968,-9.33315 z"
       id="path5547"
       inkscape:connector-curvature="0"
       transform="matrix(0.18749983,0,0,0.52916667,-339.90528,21.949144)" />
    <path
       style="color:#000000;font-style:normal;font-variant:normal;font-weight:normal;font-stretch:normal;font-size:medium;line-height:normal;font-family:sans-serif;font-variant-ligatures:normal;font-variant-position:normal;font-variant-caps:normal;font-variant-numeric:normal;font-variant-alternates:normal;font-feature-settings:normal;text-indent:0;text-align:start;text-decoration:none;text-decoration-line:none;text-decoration-style:solid;text-decoration-color:#000000;letter-spacing:normal;word-spacing:normal;text-transform:none;writing-mode:lr-tb;direction:ltr;text-orientation:mixed;dominant-baseline:auto;baseline-shift:baseline;text-anchor:start;white-space:normal;shape-padding:0;clip-rule:nonzero;display:inline;overflow:visible;visibility:visible;opacity:1;isolation:auto;mix-blend-mode:normal;color-interpolation:sRGB;color-interpolation-filters:linearRGB;solid-color:#000000;solid-opacity:1;vector-effect:none;fill:#333333;fill-opacity:0.7;fill-rule:nonzero;stroke:none;stroke-width:26.87916565;stroke-linecap:round;stroke-linejoin:round;stroke-miterlimit:10;stroke-dasharray:none;stroke-dashoffset:0;stroke-opacity:1;paint-order:fill stroke markers;color-rendering:auto;image-rendering:auto;shape-rendering:auto;text-rendering:auto;enable-background:accumulate"
       d="m 184.55078,168.47656 c -17.73559,-0.0264 -29.92002,14.6428 -42.91972,24.57388 -10.55673,7.62353 -21.79674,18.34279 -35.85958,16.52763 -14.000412,-3.52379 -27.344004,-12.77232 -42.394622,-9.40153 -9.774399,1.03801 -19.236312,7.90723 -29.167445,3.66607 -10.191863,-3.44605 -21.143048,-3.08967 -31.3734755,-0.0126 -6.5219422,0.65567 -14.5137955,0.47122 -17.7986725,7.48896 -5.74213,9.4863 3.623379,21.81916 14.23812562,19.95823 9.21441578,-0.0187 18.28137238,-5.41978 27.37685338,-1.63249 11.265143,3.88207 23.49044,2.91756 34.492287,-1.34394 7.011401,-3.10054 14.650314,-1.66277 21.266255,1.68355 12.967076,5.84226 27.812544,9.26781 41.694684,4.5276 21.79805,-7.0549 37.53472,-24.58928 55.73437,-37.53516 5.82003,-4.31733 11.41229,2.51089 15.9194,5.63876 17.17028,13.85395 34.39633,30.61078 57.16849,33.85547 14.1109,2.11343 27.04638,-4.65255 39.90665,-9.19992 9.90871,-2.84342 19.07988,4.22816 28.90117,4.73091 9.83226,1.56966 19.02386,-3.37896 28.6375,-3.79654 10.12352,2.27706 20.65046,4.62523 30.90814,1.5329 8.24734,-0.36112 16.76413,-6.70149 15.34707,-15.76085 -0.83485,-9.3955 -11.54414,-14.05184 -19.73165,-10.77943 -10.56269,3.70804 -20.84329,-3.58496 -31.56067,-1.75836 -9.23197,0.80116 -18.43711,6.42829 -27.61445,2.13909 -11.92877,-4.57097 -25.4124,-5.65623 -37.34868,-0.48619 -9.84592,3.70109 -20.73749,9.99779 -31.25392,4.70746 -19.26062,-8.29986 -32.46521,-25.8164 -50.67553,-35.77643 -4.34303,-2.11921 -9.05467,-3.38001 -13.89258,-3.54709 z"
       id="path5549"
       inkscape:connector-curvature="0"
       transform="matrix(0.18749983,0,0,0.52916667,-339.90528,21.949144)" />
    <path
       style="color:#000000;font-style:normal;font-variant:normal;font-weight:normal;font-stretch:normal;font-size:medium;line-height:normal;font-family:sans-serif;font-variant-ligatures:normal;font-variant-position:normal;font-variant-caps:normal;font-variant-numeric:normal;font-variant-alternates:normal;font-feature-settings:normal;text-indent:0;text-align:start;text-decoration:none;text-decoration-line:none;text-decoration-style:solid;text-decoration-color:#000000;letter-spacing:normal;word-spacing:normal;text-transform:none;writing-mode:lr-tb;direction:ltr;text-orientation:mixed;dominant-baseline:auto;baseline-shift:baseline;text-anchor:start;white-space:normal;shape-padding:0;clip-rule:nonzero;display:inline;overflow:visible;visibility:visible;opacity:1;isolation:auto;mix-blend-mode:normal;color-interpolation:sRGB;color-interpolation-filters:linearRGB;solid-color:#000000;solid-opacity:1;vector-effect:none;fill:#1a1a1a;fill-opacity:0.7;fill-rule:nonzero;stroke:none;stroke-width:26.87916565;stroke-linecap:round;stroke-linejoin:round;stroke-miterlimit:10;stroke-dasharray:none;stroke-dashoffset:0;stroke-opacity:1;paint-order:fill stroke markers;color-rendering:auto;image-rendering:auto;shape-rendering:auto;text-rendering:auto;enable-background:accumulate"
       d="m 184.43164,196.4043 c -22.49511,-0.38574 -40.39677,15.41463 -61.36076,20.7982 -16.53618,3.7566 -30.523796,-9.68826 -46.820603,-9.59158 -10.554503,-0.68815 -20.265169,4.27988 -30.469027,5.74853 -10.888832,-1.44073 -21.81364,-6.18056 -32.94369,-3.07707 -5.9078383,1.50957 -11.85362978,2.6185 -17.9268967,1.83903 -11.7584063,1.03684 -15.7629883,18.29883 -5.6620903,24.40677 10.30184208,5.95824 22.036839,0.79527 32.827599,-0.33898 11.011699,1.67394 22.095887,6.24647 33.330078,2.91604 9.350765,-2.48349 19.457965,-7.24023 28.921114,-2.42424 14.052515,5.86981 29.511646,10.64677 44.772246,6.75629 18.22191,-3.72859 33.27059,-16.16301 51.42383,-19.89258 14.02444,-1.29274 26.08994,7.62688 38.46953,12.79868 15.31319,7.55062 33.31111,11.40625 49.8918,5.69939 10.51388,-2.83515 21.02205,-10.53912 32.21547,-6.17119 11.29771,4.07423 23.68093,6.02904 35.35006,2.22277 6.41479,-2.43567 13.20965,-2.18104 19.7002,-0.19616 11.03286,3.1316 22.59905,0.1705 33.32146,-2.56592 10.7971,-4.77051 9.02566,-22.40215 -2.50465,-24.92944 -9.12195,-1.89874 -18.21436,4.38459 -27.26351,0.78222 -10.90102,-3.29149 -22.29635,-1.65093 -32.97202,1.61791 -10.36303,2.11004 -19.73797,-5.01344 -30.05015,-5.04823 -16.02675,-2.14527 -29.5452,9.29645 -45.08658,10.13957 -15.53884,-0.56394 -28.5027,-10.50122 -42.64793,-15.8325 -7.74188,-3.36683 -16.05564,-5.44315 -24.51548,-5.65751 z"
       id="path5551"
       inkscape:connector-curvature="0"
       transform="matrix(0.18749983,0,0,0.52916667,-339.90528,21.949144)" />
    <path
       style="color:#000000;font-style:normal;font-variant:normal;font-weight:normal;font-stretch:normal;font-size:medium;line-height:normal;font-family:sans-serif;font-variant-ligatures:normal;font-variant-position:normal;font-variant-caps:normal;font-variant-numeric:normal;font-variant-alternates:normal;font-feature-settings:normal;text-indent:0;text-align:start;text-decoration:none;text-decoration-line:none;text-decoration-style:solid;text-decoration-color:#000000;letter-spacing:normal;word-spacing:normal;text-transform:none;writing-mode:lr-tb;direction:ltr;text-orientation:mixed;dominant-baseline:auto;baseline-shift:baseline;text-anchor:start;white-space:normal;shape-padding:0;clip-rule:nonzero;display:inline;overflow:visible;visibility:visible;opacity:1;isolation:auto;mix-blend-mode:normal;color-interpolation:sRGB;color-interpolation-filters:linearRGB;solid-color:#000000;solid-opacity:1;vector-effect:none;fill:#000000;fill-opacity:0.7;fill-rule:nonzero;stroke:none;stroke-width:26.87916565;stroke-linecap:round;stroke-linejoin:round;stroke-miterlimit:10;stroke-dasharray:none;stroke-dashoffset:0;stroke-opacity:1;paint-order:fill stroke markers;color-rendering:auto;image-rendering:auto;shape-rendering:auto;text-rendering:auto;enable-background:accumulate"
       d="m 80.363281,215.59766 c -10.796667,-0.20701 -20.628993,5.6387 -31.295351,5.695 -11.475664,-2.64408 -23.470406,-5.97045 -35.143468,-2.22404 -6.0151249,1.95717 -12.1789443,1.07914 -18.2580233,0.37405 -11.7977367,0.38544 -16.7501707,17.39974 -7.0022597,24.05657 11.46434737,6.79772 25.210875,2.81584 37.43543,0.70986 10.843787,1.09746 21.462542,6.0314 32.522412,3.33439 10.784207,-2.0574 22.009563,-7.97115 32.925557,-2.96669 15.227742,5.64225 31.468262,10.40439 47.845112,7.47965 19.56315,-3.04374 39.19669,-11.29304 59.19232,-6.22786 18.38618,3.52774 37.1477,10.15303 55.98629,5.44361 13.6433,-2.17755 26.72819,-12.27153 40.88446,-7.26522 11.56205,3.96275 24.16639,5.94549 36.05692,2.11199 7.01799,-2.55599 14.4018,-1.98389 21.44683,0.0959 11.32496,3.19032 22.61621,-1.45154 33.91402,-1.85886 11.54483,-2.46006 13.41898,-20.08108 2.64986,-24.91442 -11.42228,-4.98345 -23.47798,4.02291 -35.04244,-0.36445 -11.29209,-3.50694 -22.97764,-0.83947 -34.06514,1.96252 -10.26081,1.34003 -19.60603,-4.99261 -29.81425,-5.26225 -17.41218,-2.06055 -32.43775,9.39891 -49.43784,10.18527 -18.45238,-0.2095 -35.84126,-8.45166 -54.35845,-8.54238 -19.80454,-1.27029 -38.38365,7.37289 -57.90306,8.53609 -16.89595,0.36924 -31.543416,-11.06216 -48.538929,-10.35874 z"
       id="path5553"
       inkscape:connector-curvature="0"
       transform="matrix(0.18749983,0,0,0.52916667,-339.90528,24.065811)" />
    <path
       transform="matrix(0.18749983,0,0,0.52916667,-339.90528,21.949144)"
       inkscape:connector-curvature="0"
       id="path5570"
       d="m 184.33398,96.908203 c -12.69117,-0.09296 -19.00574,12.683377 -23.09557,22.817367 -9.25485,22.67449 -17.56912,47.22189 -36.74641,63.68687 -7.29056,6.45104 -17.42123,13.5344 -27.493888,8.97578 -12.802257,-5.34201 -26.732365,-11.9613 -40.866267,-7.51227 -7.918099,1.51397 -15.851222,6.65641 -23.974765,3.02723 -10.201285,-3.5345 -21.193009,-3.30919 -31.4668183,-0.22663 -7.0829205,0.45946 -15.4205117,2.87527 -16.9371137,10.97772 -2.833251,10.28427 8.1790601,19.05764 17.840602,16.19925 7.5786499,-1.18554 15.306459,-4.57295 22.850202,-1.17523 10.831053,3.79916 22.615445,2.80934 33.174624,-1.36419 6.408764,-2.81439 13.500301,-2.2108 19.612129,1.05363 12.733888,6.152 27.665115,10.23371 41.435315,4.89011 24.06068,-9.52842 41.34836,-30.97409 52.65444,-53.58663 4.69342,-9.66134 8.70891,-19.638 12.66001,-29.62235 9.37475,24.4712 20.27586,49.51283 40.31578,67.24663 13.27523,12.65209 32.27329,22.49859 50.92488,16.88619 9.60188,-1.93358 17.95104,-9.06384 27.96246,-8.70512 11.23334,2.63992 22.53347,7.95702 34.29493,4.73049 7.2607,-1.87904 14.83241,-4.73774 22.2248,-1.6288 10.22059,2.76753 21.39985,1.77669 31.01031,-2.44579 10.20228,-5.93705 6.48884,-23.264 -5.25044,-24.49863 -6.83238,-0.60948 -13.56248,3.37974 -20.33487,0.60771 -11.06511,-3.73203 -22.71857,-1.59206 -33.56387,1.73509 -8.06588,1.07562 -15.3708,-4.0616 -23.29101,-4.9082 -14.42642,-3.15744 -27.42505,5.08696 -40.59602,9.31307 -11.10881,2.37932 -20.40557,-6.57813 -27.96062,-13.42832 -18.2891,-17.88827 -25.32764,-43.06996 -35.46316,-65.7727 -3.72429,-8.26833 -9.88447,-17.052022 -19.91966,-17.272277 z"
       style="color:#000000;font-style:normal;font-variant:normal;font-weight:normal;font-stretch:normal;font-size:medium;line-height:normal;font-family:sans-serif;font-variant-ligatures:normal;font-variant-position:normal;font-variant-caps:normal;font-variant-numeric:normal;font-variant-alternates:normal;font-feature-settings:normal;text-indent:0;text-align:start;text-decoration:none;text-decoration-line:none;text-decoration-style:solid;text-decoration-color:#000000;letter-spacing:normal;word-spacing:normal;text-transform:none;writing-mode:lr-tb;direction:ltr;text-orientation:mixed;dominant-baseline:auto;baseline-shift:baseline;text-anchor:start;white-space:normal;shape-padding:0;clip-rule:nonzero;display:inline;overflow:visible;visibility:visible;opacity:1;isolation:auto;mix-blend-mode:normal;color-interpolation:sRGB;color-interpolation-filters:linearRGB;solid-color:#000000;solid-opacity:1;vector-effect:none;fill:#666666;fill-opacity:0.7;fill-rule:nonzero;stroke:none;stroke-width:26.87916565;stroke-linecap:round;stroke-linejoin:round;stroke-miterlimit:10;stroke-dasharray:none;stroke-dashoffset:0;stroke-opacity:1;paint-order:fill stroke markers;color-rendering:auto;image-rendering:auto;shape-rendering:auto;text-rendering:auto;enable-background:accumulate" />
    <path
       transform="matrix(0.18749983,0,0,0.52916667,-339.90528,21.949144)"
       inkscape:connector-curvature="0"
       id="path5572"
       d="m 183.66406,129.05078 c -14.34368,0.61787 -21.60402,14.84994 -28.21283,25.60276 -10.71261,17.84026 -23.22156,36.52834 -42.67225,45.58971 -11.25409,5.2073 -21.961549,-4.11441 -32.601513,-6.69026 -12.441114,-4.69787 -25.444361,-0.31436 -37.454811,3.43728 -9.632592,1.0456 -18.643192,-5.17382 -28.427127,-3.65072 -7.3435926,0.64562 -14.42855502,3.0403 -21.7480617,3.72356 -11.3788313,3.13964 -12.2058343,20.84074 -1.1693017,25.02764 11.0635449,4.36008 22.3409004,-5.31205 33.3614684,-0.44273 11.167209,3.9053 23.300329,2.85033 34.189292,-1.41433 6.803459,-3.19832 14.248554,-1.52606 20.651082,1.74785 13.639647,6.6727 30.174922,9.73086 44.336482,2.75449 25.0596,-11.36561 41.91661,-34.61721 55.4732,-57.69832 2.16126,-2.45644 4.40186,-11.02319 6.62329,-4.20486 13.59368,23.26825 29.48302,46.97046 53.89506,59.96675 13.36584,7.72762 30.04392,7.54002 43.8714,1.10296 7.66786,-3.21317 16.11237,-7.86174 24.46241,-3.93238 10.92182,4.27141 23.09646,5.75967 34.36764,1.85377 6.2663,-2.645 12.86131,-1.44872 19.15235,0.32989 9.6488,2.20014 20.05528,0.76014 29.01749,-3.11957 10.18273,-5.97053 6.41238,-23.28519 -5.3309,-24.48125 -7.02422,-0.53693 -13.95463,3.53044 -20.92875,0.70781 -10.84755,-3.6252 -22.28176,-1.68033 -32.92007,1.61806 -9.88952,1.54301 -18.78137,-5.37989 -28.67578,-5.31057 -14.13618,-1.47774 -25.93847,7.9514 -39.3086,10.29109 -12.16586,-0.11077 -21.58851,-9.66674 -29.81339,-17.56741 -13.33781,-13.39918 -20.69506,-31.19507 -32.24098,-45.90807 -4.40165,-5.30194 -10.77362,-9.52071 -17.8968,-9.33315 z"
       style="color:#000000;font-style:normal;font-variant:normal;font-weight:normal;font-stretch:normal;font-size:medium;line-height:normal;font-family:sans-serif;font-variant-ligatures:normal;font-variant-position:normal;font-variant-caps:normal;font-variant-numeric:normal;font-variant-alternates:normal;font-feature-settings:normal;text-indent:0;text-align:start;text-decoration:none;text-decoration-line:none;text-decoration-style:solid;text-decoration-color:#000000;letter-spacing:normal;word-spacing:normal;text-transform:none;writing-mode:lr-tb;direction:ltr;text-orientation:mixed;dominant-baseline:auto;baseline-shift:baseline;text-anchor:start;white-space:normal;shape-padding:0;clip-rule:nonzero;display:inline;overflow:visible;visibility:visible;opacity:1;isolation:auto;mix-blend-mode:normal;color-interpolation:sRGB;color-interpolation-filters:linearRGB;solid-color:#000000;solid-opacity:1;vector-effect:none;fill:#4d4d4d;fill-opacity:0.7;fill-rule:nonzero;stroke:none;stroke-width:26.87916565;stroke-linecap:round;stroke-linejoin:round;stroke-miterlimit:10;stroke-dasharray:none;stroke-dashoffset:0;stroke-opacity:1;paint-order:fill stroke markers;color-rendering:auto;image-rendering:auto;shape-rendering:auto;text-rendering:auto;enable-background:accumulate" />
    <circle
       style="opacity:1;fill:url(#linearGradient10304);fill-opacity:1;stroke:#000000;stroke-width:32;stroke-linecap:round;stroke-linejoin:miter;stroke-miterlimit:4;stroke-dasharray:none;stroke-opacity:1"
       id="path10296"
       cx="117.14286"
       cy="-300"
       r="197.14285"
       transform="matrix(-0.16991751,0.29430576,-0.29430576,-0.16991751,-56.29422,-56.915383)" />
    <g
       id="g10312"
       transform="translate(6.9490074,-5.624985)">
      <path
         transform="matrix(0.27702823,0,0,0.49973736,-45.878876,-39.125819)"
         style="fill:none;stroke:#000000;stroke-width:26.87916565;stroke-linecap:round;stroke-linejoin:round;stroke-miterlimit:10;stroke-dasharray:none;stroke-opacity:1;paint-order:fill stroke markers"
         inkscape:connector-curvature="0"
         id="path10306"
         stroke-miterlimit="10"
         d="m 33.979891,210.12001 2.888446,0.45851 2.888446,0.17067 2.888446,-0.14582 2.888446,-0.44921 5.776891,-1.57749 5.776892,-1.87671 5.776892,-1.39569 2.888446,-0.3277 2.888446,-0.0257 2.888446,0.28477 2.888446,0.5788 5.776892,1.87145 11.553783,4.79457 5.776892,1.85113 5.776889,0.95313 2.88845,0.0738 2.88844,-0.20909 2.88845,-0.49199 2.88845,-0.76821 5.77689,-2.31624 5.77689,-3.25553 5.77689,-4.08359 5.77689,-4.84793 5.7769,-5.62298 5.77689,-6.48973 5.77689,-7.4987 5.77689,-8.59215 11.55378,-18.81016 2.88845,-4.04192 2.88845,-3.19108 2.88844,-2.02531 1.44423,-0.49942 1.44422,-0.13394 1.44422,0.23565 1.44422,0.59804 2.88845,2.20232 2.88845,3.32826 2.88844,4.13288 11.55379,18.83059 5.77689,8.51846 5.77689,7.42476 5.77689,6.42562 5.77689,5.56745 5.77689,4.79581 5.7769,4.02927 5.77689,3.19465 5.77689,2.24692 2.88845,0.73071 2.88844,0.45323 2.88845,0.16989 2.88844,-0.1124 5.7769,-1.02314 5.77689,-1.90159 11.55378,-4.79469 5.77689,-1.81495 2.88845,-0.54005 2.88844,-0.24239 2.88845,0.0685 2.88845,0.3672 5.77689,1.45073 5.77689,1.882 5.77689,1.52838 2.88845,0.4096 2.88844,0.10203 2.88845,-0.21303 2.88845,-0.49364"
         class="dcg-svg-curve"
         sodipodi:nodetypes="ccccccccccccccccccccccccccccccccccccccccccccccccccccccccccccccccccc" />
      <path
         sodipodi:nodetypes="csccsccccsccsccsccsccccsccsc"
         inkscape:connector-curvature="0"
         id="path10308"
         d="M 4.93,3.93 C 3.12,5.74 2,8.24 2,11 c 0,2.76 1.12,5.26 2.93,7.07 L 6.34,16.66 C 4.89,15.22 4,13.22 4,11 4,8.79 4.89,6.78 6.34,5.34 L 4.93,3.93 m 14.14,0 -1.41,1.41 C 19.11,6.78 20,8.79 20,11 c 0,2.22 -0.89,4.22 -2.34,5.66 l 1.41,1.41 C 20.88,16.26 22,13.76 22,11 22,8.24 20.88,5.74 19.07,3.93 M 7.76,6.76 C 6.67,7.85 6,9.35 6,11 c 0,1.65 0.67,3.15 1.76,4.24 L 9.17,13.83 C 8.45,13.11 8,12.11 8,11 8,9.89 8.45,8.89 9.17,8.17 L 7.76,6.76 m 8.48,0 -1.41,1.41 C 15.55,8.89 16,9.89 16,11 c 0,1.11 -0.45,2.11 -1.17,2.83 l 1.41,1.41 C 17.33,14.15 18,12.65 18,11 18,9.35 17.33,7.85 16.24,6.76"
         transform="matrix(4.1384975,0,0,4.1384975,-44.487758,-23.159357)"
         style="fill:#3f3f3f;fill-opacity:1" />
    </g>
  </g>
</svg>
